lab2a-div/divider.vcd
$date
	Tue Jan 31 23:27:43 2023
$end
$version
	Icarus Verilog
$end
$timescale
	1ps
$end
$scope module test_divider $end
$var wire 16 ! o_div_quotient [15:0] $end
$var wire 16 " o_div_remainder [15:0] $end
$var wire 16 # o_1iter_remainder [15:0] $end
$var wire 16 $ o_1iter_quotient [15:0] $end
$var wire 16 % o_1iter_dividend [15:0] $end
$var reg 16 & exp_dividend [15:0] $end
$var reg 16 ' exp_quotient [15:0] $end
$var reg 16 ( exp_remainder [15:0] $end
$var reg 16 ) i_dividend [15:0] $end
$var reg 16 * i_divisor [15:0] $end
$var reg 16 + i_quotient [15:0] $end
$var reg 16 , i_remainder [15:0] $end
$var integer 32 - __ignore [31:0] $end
$var integer 32 . allTests [31:0] $end
$var integer 32 / errors [31:0] $end
$var integer 32 0 input_file [31:0] $end
$var integer 32 1 randomSeed [31:0] $end
$scope module div $end
$var wire 16 2 i_dividend [15:0] $end
$var wire 16 3 i_divisor [15:0] $end
$var wire 16 4 o_quotient [15:0] $end
$var wire 16 5 o_remainder [15:0] $end
$upscope $end
$scope module divider_iter $end
$var wire 16 6 i_dividend [15:0] $end
$var wire 16 7 i_divisor [15:0] $end
$var wire 16 8 i_quotient [15:0] $end
$var wire 16 9 i_remainder [15:0] $end
$var wire 1 : rem_sub_non_negative $end
$var wire 17 ; rem_sub [16:0] $end
$var wire 16 < rem_shifted_plus_1 [15:0] $end
$var wire 16 = rem_shifted [15:0] $end
$var wire 16 > rem_mux_out_1 [15:0] $end
$var wire 16 ? quot_shifted_plus_1 [15:0] $end
$var wire 16 @ quot_shifted [15:0] $end
$var wire 16 A o_remainder [15:0] $end
$var wire 16 B o_quotient [15:0] $end
$var wire 16 C o_dividend [15:0] $end
$scope module quot_mux $end
$var wire 16 D A [15:0] $end
$var wire 16 E B [15:0] $end
$var wire 1 : S $end
$var wire 16 F Out [15:0] $end
$scope begin genblk1[0] $end
$scope module m $end
$var wire 1 G A $end
$var wire 1 H B $end
$var wire 1 : S $end
$var wire 1 I Out $end
$upscope $end
$upscope $end
$scope begin genblk1[1] $end
$scope module m $end
$var wire 1 J A $end
$var wire 1 K B $end
$var wire 1 : S $end
$var wire 1 L Out $end
$upscope $end
$upscope $end
$scope begin genblk1[2] $end
$scope module m $end
$var wire 1 M A $end
$var wire 1 N B $end
$var wire 1 : S $end
$var wire 1 O Out $end
$upscope $end
$upscope $end
$scope begin genblk1[3] $end
$scope module m $end
$var wire 1 P A $end
$var wire 1 Q B $end
$var wire 1 : S $end
$var wire 1 R Out $end
$upscope $end
$upscope $end
$scope begin genblk1[4] $end
$scope module m $end
$var wire 1 S A $end
$var wire 1 T B $end
$var wire 1 : S $end
$var wire 1 U Out $end
$upscope $end
$upscope $end
$scope begin genblk1[5] $end
$scope module m $end
$var wire 1 V A $end
$var wire 1 W B $end
$var wire 1 : S $end
$var wire 1 X Out $end
$upscope $end
$upscope $end
$scope begin genblk1[6] $end
$scope module m $end
$var wire 1 Y A $end
$var wire 1 Z B $end
$var wire 1 : S $end
$var wire 1 [ Out $end
$upscope $end
$upscope $end
$scope begin genblk1[7] $end
$scope module m $end
$var wire 1 \ A $end
$var wire 1 ] B $end
$var wire 1 : S $end
$var wire 1 ^ Out $end
$upscope $end
$upscope $end
$scope begin genblk1[8] $end
$scope module m $end
$var wire 1 _ A $end
$var wire 1 ` B $end
$var wire 1 : S $end
$var wire 1 a Out $end
$upscope $end
$upscope $end
$scope begin genblk1[9] $end
$scope module m $end
$var wire 1 b A $end
$var wire 1 c B $end
$var wire 1 : S $end
$var wire 1 d Out $end
$upscope $end
$upscope $end
$scope begin genblk1[10] $end
$scope module m $end
$var wire 1 e A $end
$var wire 1 f B $end
$var wire 1 : S $end
$var wire 1 g Out $end
$upscope $end
$upscope $end
$scope begin genblk1[11] $end
$scope module m $end
$var wire 1 h A $end
$var wire 1 i B $end
$var wire 1 : S $end
$var wire 1 j Out $end
$upscope $end
$upscope $end
$scope begin genblk1[12] $end
$scope module m $end
$var wire 1 k A $end
$var wire 1 l B $end
$var wire 1 : S $end
$var wire 1 m Out $end
$upscope $end
$upscope $end
$scope begin genblk1[13] $end
$scope module m $end
$var wire 1 n A $end
$var wire 1 o B $end
$var wire 1 : S $end
$var wire 1 p Out $end
$upscope $end
$upscope $end
$scope begin genblk1[14] $end
$scope module m $end
$var wire 1 q A $end
$var wire 1 r B $end
$var wire 1 : S $end
$var wire 1 s Out $end
$upscope $end
$upscope $end
$scope begin genblk1[15] $end
$scope module m $end
$var wire 1 t A $end
$var wire 1 u B $end
$var wire 1 : S $end
$var wire 1 v Out $end
$upscope $end
$upscope $end
$upscope $end
$scope module rem_mux_1 $end
$var wire 16 w A [15:0] $end
$var wire 16 x B [15:0] $end
$var wire 1 y S $end
$var wire 16 z Out [15:0] $end
$scope begin genblk1[0] $end
$scope module m $end
$var wire 1 { A $end
$var wire 1 | B $end
$var wire 1 y S $end
$var wire 1 } Out $end
$upscope $end
$upscope $end
$scope begin genblk1[1] $end
$scope module m $end
$var wire 1 ~ A $end
$var wire 1 !" B $end
$var wire 1 y S $end
$var wire 1 "" Out $end
$upscope $end
$upscope $end
$scope begin genblk1[2] $end
$scope module m $end
$var wire 1 #" A $end
$var wire 1 $" B $end
$var wire 1 y S $end
$var wire 1 %" Out $end
$upscope $end
$upscope $end
$scope begin genblk1[3] $end
$scope module m $end
$var wire 1 &" A $end
$var wire 1 '" B $end
$var wire 1 y S $end
$var wire 1 (" Out $end
$upscope $end
$upscope $end
$scope begin genblk1[4] $end
$scope module m $end
$var wire 1 )" A $end
$var wire 1 *" B $end
$var wire 1 y S $end
$var wire 1 +" Out $end
$upscope $end
$upscope $end
$scope begin genblk1[5] $end
$scope module m $end
$var wire 1 ," A $end
$var wire 1 -" B $end
$var wire 1 y S $end
$var wire 1 ." Out $end
$upscope $end
$upscope $end
$scope begin genblk1[6] $end
$scope module m $end
$var wire 1 /" A $end
$var wire 1 0" B $end
$var wire 1 y S $end
$var wire 1 1" Out $end
$upscope $end
$upscope $end
$scope begin genblk1[7] $end
$scope module m $end
$var wire 1 2" A $end
$var wire 1 3" B $end
$var wire 1 y S $end
$var wire 1 4" Out $end
$upscope $end
$upscope $end
$scope begin genblk1[8] $end
$scope module m $end
$var wire 1 5" A $end
$var wire 1 6" B $end
$var wire 1 y S $end
$var wire 1 7" Out $end
$upscope $end
$upscope $end
$scope begin genblk1[9] $end
$scope module m $end
$var wire 1 8" A $end
$var wire 1 9" B $end
$var wire 1 y S $end
$var wire 1 :" Out $end
$upscope $end
$upscope $end
$scope begin genblk1[10] $end
$scope module m $end
$var wire 1 ;" A $end
$var wire 1 <" B $end
$var wire 1 y S $end
$var wire 1 =" Out $end
$upscope $end
$upscope $end
$scope begin genblk1[11] $end
$scope module m $end
$var wire 1 >" A $end
$var wire 1 ?" B $end
$var wire 1 y S $end
$var wire 1 @" Out $end
$upscope $end
$upscope $end
$scope begin genblk1[12] $end
$scope module m $end
$var wire 1 A" A $end
$var wire 1 B" B $end
$var wire 1 y S $end
$var wire 1 C" Out $end
$upscope $end
$upscope $end
$scope begin genblk1[13] $end
$scope module m $end
$var wire 1 D" A $end
$var wire 1 E" B $end
$var wire 1 y S $end
$var wire 1 F" Out $end
$upscope $end
$upscope $end
$scope begin genblk1[14] $end
$scope module m $end
$var wire 1 G" A $end
$var wire 1 H" B $end
$var wire 1 y S $end
$var wire 1 I" Out $end
$upscope $end
$upscope $end
$scope begin genblk1[15] $end
$scope module m $end
$var wire 1 J" A $end
$var wire 1 K" B $end
$var wire 1 y S $end
$var wire 1 L" Out $end
$upscope $end
$upscope $end
$upscope $end
$scope module rem_mux_2 $end
$var wire 16 M" A [15:0] $end
$var wire 16 N" B [15:0] $end
$var wire 1 : S $end
$var wire 16 O" Out [15:0] $end
$scope begin genblk1[0] $end
$scope module m $end
$var wire 1 P" A $end
$var wire 1 Q" B $end
$var wire 1 : S $end
$var wire 1 R" Out $end
$upscope $end
$upscope $end
$scope begin genblk1[1] $end
$scope module m $end
$var wire 1 S" A $end
$var wire 1 T" B $end
$var wire 1 : S $end
$var wire 1 U" Out $end
$upscope $end
$upscope $end
$scope begin genblk1[2] $end
$scope module m $end
$var wire 1 V" A $end
$var wire 1 W" B $end
$var wire 1 : S $end
$var wire 1 X" Out $end
$upscope $end
$upscope $end
$scope begin genblk1[3] $end
$scope module m $end
$var wire 1 Y" A $end
$var wire 1 Z" B $end
$var wire 1 : S $end
$var wire 1 [" Out $end
$upscope $end
$upscope $end
$scope begin genblk1[4] $end
$scope module m $end
$var wire 1 \" A $end
$var wire 1 ]" B $end
$var wire 1 : S $end
$var wire 1 ^" Out $end
$upscope $end
$upscope $end
$scope begin genblk1[5] $end
$scope module m $end
$var wire 1 _" A $end
$var wire 1 `" B $end
$var wire 1 : S $end
$var wire 1 a" Out $end
$upscope $end
$upscope $end
$scope begin genblk1[6] $end
$scope module m $end
$var wire 1 b" A $end
$var wire 1 c" B $end
$var wire 1 : S $end
$var wire 1 d" Out $end
$upscope $end
$upscope $end
$scope begin genblk1[7] $end
$scope module m $end
$var wire 1 e" A $end
$var wire 1 f" B $end
$var wire 1 : S $end
$var wire 1 g" Out $end
$upscope $end
$upscope $end
$scope begin genblk1[8] $end
$scope module m $end
$var wire 1 h" A $end
$var wire 1 i" B $end
$var wire 1 : S $end
$var wire 1 j" Out $end
$upscope $end
$upscope $end
$scope begin genblk1[9] $end
$scope module m $end
$var wire 1 k" A $end
$var wire 1 l" B $end
$var wire 1 : S $end
$var wire 1 m" Out $end
$upscope $end
$upscope $end
$scope begin genblk1[10] $end
$scope module m $end
$var wire 1 n" A $end
$var wire 1 o" B $end
$var wire 1 : S $end
$var wire 1 p" Out $end
$upscope $end
$upscope $end
$scope begin genblk1[11] $end
$scope module m $end
$var wire 1 q" A $end
$var wire 1 r" B $end
$var wire 1 : S $end
$var wire 1 s" Out $end
$upscope $end
$upscope $end
$scope begin genblk1[12] $end
$scope module m $end
$var wire 1 t" A $end
$var wire 1 u" B $end
$var wire 1 : S $end
$var wire 1 v" Out $end
$upscope $end
$upscope $end
$scope begin genblk1[13] $end
$scope module m $end
$var wire 1 w" A $end
$var wire 1 x" B $end
$var wire 1 : S $end
$var wire 1 y" Out $end
$upscope $end
$upscope $end
$scope begin genblk1[14] $end
$scope module m $end
$var wire 1 z" A $end
$var wire 1 {" B $end
$var wire 1 : S $end
$var wire 1 |" Out $end
$upscope $end
$upscope $end
$scope begin genblk1[15] $end
$scope module m $end
$var wire 1 }" A $end
$var wire 1 ~" B $end
$var wire 1 : S $end
$var wire 1 !# Out $end
$upscope $end
$upscope $end
$upscope $end
$upscope $end
$scope task printPoints $end
$var reg 32 "# actual [31:0] $end
$var reg 32 ## possible [31:0] $end
$upscope $end
$upscope $end
$enddefinitions $end
#0
$dumpvars
bx ##
bx "#
0!#
0~"
0}"
0|"
0{"
0z"
0y"
0x"
0w"
0v"
0u"
0t"
0s"
0r"
0q"
0p"
0o"
0n"
0m"
0l"
0k"
0j"
0i"
0h"
0g"
0f"
0e"
0d"
0c"
0b"
0a"
0`"
0_"
0^"
0]"
0\"
0["
0Z"
0Y"
0X"
0W"
0V"
0U"
0T"
0S"
0R"
0Q"
0P"
b0 O"
b0 N"
b0 M"
0L"
0K"
0J"
0I"
0H"
0G"
0F"
0E"
0D"
0C"
0B"
0A"
0@"
0?"
0>"
0="
0<"
0;"
0:"
09"
08"
07"
06"
05"
04"
03"
02"
01"
00"
0/"
0."
0-"
0,"
0+"
0*"
0)"
0("
0'"
0&"
0%"
0$"
0#"
0""
0!"
0~
0}
1|
0{
b0 z
0y
b1 x
b0 w
0v
0u
0t
0s
0r
0q
0p
0o
0n
0m
0l
0k
0j
0i
0h
0g
0f
0e
0d
0c
0b
0a
0`
0_
0^
0]
0\
0[
0Z
0Y
0X
0W
0V
0U
0T
0S
0R
0Q
0P
0O
0N
0M
0L
0K
0J
1I
1H
0G
b1 F
b1 E
b0 D
b0 C
b1 B
b0 A
b0 @
b1 ?
b0 >
b0 =
b1 <
b0 ;
1:
b0 9
b0 8
b0 7
b0 6
bz 5
bz 4
b0 3
b0 2
b10000000001011000100010000000000 1
b10000000000000000000000000000011 0
b0 /
b0 .
bx -
b0 ,
b0 +
b0 *
b0 )
bx (
bx '
bx &
b0 %
b1 $
b0 #
bz "
bz !
$end
#102000
1U"
1^"
1d"
1j"
b1101010010 #
b1101010010 A
b1101010010 O"
1m"
1f"
1o"
1S"
1\"
1b"
1h"
1k"
1""
1+"
11"
17"
b1101010010 >
b1101010010 z
b1101010010 M"
1:"
1!"
1*"
10"
16"
19"
1~
1)"
1/"
15"
18"
1Q"
0T"
0W"
0Z"
1]"
0`"
1c"
0i"
1x"
1~"
b1101010011 <
b1101010011 x
b1101010010 =
b1101010010 w
b0 $
b0 B
b0 F
0I
b1010010011010001 N"
b100000000000000 %
b100000000000000 C
b0 '
b1101010010 (
b100000000000000 &
b110101001 ,
b110101001 9
0:
b11010010011010001 ;
b101111010000001 *
b101111010000001 3
b101111010000001 7
b10000000000000 )
b10000000000000 2
b10000000000000 6
b1 -
#110000
b1 .
#112000
0U"
0^"
1a"
0m"
1p"
b110101100000 #
b110101100000 A
b110101100000 O"
1s"
1l"
1u"
0S"
0\"
1_"
0k"
1n"
1q"
0""
0+"
1."
0:"
1="
b110101100000 >
b110101100000 z
b110101100000 M"
1@"
0!"
0*"
1-"
09"
1<"
1?"
0~
0)"
1,"
08"
1;"
1>"
0T"
1W"
1Z"
1]"
1`"
0r"
b110101100001 <
b110101100001 x
b110101100000 =
b110101100000 w
b1011011011111101 N"
b1001000000000000 %
b1001000000000000 C
b110101100000 (
b1001000000000000 &
b11010110000 ,
b11010110000 9
b11011011011111101 ;
b101011001100011 *
b101011001100011 3
b101011001100011 7
b100100000000000 )
b100100000000000 2
b100100000000000 6
b10 -
#120000
b10 .
#122000
1^"
0d"
1g"
1m"
b11110110000 #
b11110110000 A
b11110110000 O"
0s"
0]"
0c"
0f"
1r"
0u"
1\"
0b"
1e"
1k"
0q"
1+"
01"
14"
1:"
b11110110000 >
b11110110000 z
b11110110000 M"
0@"
1*"
00"
13"
19"
0?"
1)"
0/"
12"
18"
0>"
1T"
0W"
0Z"
1`"
0i"
1o"
1{"
0~"
b11110110001 <
b11110110001 x
b11110110000 =
b11110110000 w
b110111000100011 N"
b1101000000000000 %
b1101000000000000 C
b11110110000 (
b1101000000000000 &
b1111011000 ,
b1111011000 9
b10110111000100011 ;
b1001100110001101 *
b1001100110001101 3
b1001100110001101 7
b110100000000000 )
b110100000000000 2
b110100000000000 6
b11 -
#130000
b11 .
#132000
1U"
1X"
0^"
0a"
1d"
0g"
0j"
0m"
0p"
b100001000110 #
b100001000110 A
b100001000110 O"
1s"
0T"
1S"
1V"
0\"
0_"
1b"
0e"
0h"
0k"
0n"
1q"
1""
1%"
0+"
0."
11"
04"
07"
0:"
0="
b100001000110 >
b100001000110 z
b100001000110 M"
1@"
1!"
1$"
0*"
0-"
10"
03"
06"
09"
0<"
1?"
1~
1#"
0)"
0,"
1/"
02"
05"
08"
0;"
1>"
0Q"
1W"
0Z"
1]"
1`"
0f"
0i"
1l"
0r"
1u"
0{"
1~"
b100001000111 <
b100001000111 x
b100001000110 =
b100001000110 w
b1011011000110100 N"
b101000000000000 %
b101000000000000 C
b100001000110 (
b101000000000000 &
b10000100011 ,
b10000100011 9
b11011011000110100 ;
b101001000010010 *
b101001000010010 3
b101001000010010 7
b10100000000000 )
b10100000000000 2
b10100000000000 6
b100 -
#140000
b100 .
#142000
0U"
0X"
1^"
1a"
0d"
1m"
b111000110000 #
b111000110000 A
b111000110000 O"
1p"
1T"
0]"
0l"
0u"
0x"
1{"
0S"
0V"
1\"
1_"
0b"
1k"
1n"
0""
0%"
1+"
1."
01"
1:"
b111000110000 >
b111000110000 z
b111000110000 M"
1="
0!"
0$"
1*"
1-"
00"
19"
1<"
0~
0#"
1)"
1,"
0/"
18"
1;"
1Q"
0W"
0Z"
1i"
0o"
0r"
0~"
b111000110001 <
b111000110001 x
b111000110000 =
b111000110000 w
b100000100100011 N"
b1000000000000 %
b1000000000000 C
b111000110000 (
b1000000000000 &
b11100011000 ,
b11100011000 9
b10100000100100011 ;
b1100110100001101 *
b1100110100001101 3
b1100110100001101 7
b100000000000 )
b100000000000 2
b100000000000 6
b101 -
#150000
b101 .
#152000
1U"
1X"
0a"
1j"
1Z"
0`"
1S"
1V"
0_"
1h"
b111100010111 #
b111100010111 A
b111100010111 O"
1R"
0Q"
1T"
0W"
1""
1%"
0."
17"
1P"
1!"
1$"
0-"
16"
1~
1#"
0,"
15"
1]"
1c"
1f"
1i"
b111100010111 >
b111100010111 z
b111100010111 M"
1}
b111100010111 <
b111100010111 x
b111100010110 =
b111100010110 w
b100000111011010 N"
1y
b110000000000000 %
b110000000000000 C
b111100010111 (
b110000000000000 &
b11110001011 ,
b11110001011 9
b10100000111011010 ;
b1100110100111101 *
b1100110100111101 3
b1100110100111101 7
b1011000000000000 )
b1011000000000000 2
b1011000000000000 6
b110 -
#160000
b110 .
#162000
1["
1a"
1d"
0m"
0s"
0Z"
1`"
1r"
1Y"
1_"
1b"
0k"
0q"
b10101111110 #
b10101111110 A
b10101111110 O"
0R"
1("
1."
11"
0:"
0@"
0P"
1'"
1-"
10"
09"
0?"
1&"
1,"
1/"
08"
0>"
0Q"
1]"
1c"
0l"
1o"
0u"
0{"
b10101111110 >
b10101111110 z
b10101111110 M"
0}
b10101111111 <
b10101111111 x
b10101111110 =
b10101111110 w
b110111110010 N"
0y
b1101000000000000 %
b1101000000000000 C
b10101111110 (
b1101000000000000 &
b1010111111 ,
b1010111111 9
b10000110111110010 ;
b1111011110001100 *
b1111011110001100 3
b1111011110001100 7
b110100000000000 )
b110100000000000 2
b110100000000000 6
b111 -
#170000
b111 .
#172000
0a"
0d"
1g"
0j"
1m"
1s"
0`"
0_"
0b"
1e"
0h"
1k"
1q"
b111010011111 #
b111010011111 A
b111010011111 O"
1R"
1Q"
0."
01"
14"
07"
1:"
1@"
1P"
0-"
00"
13"
06"
19"
1?"
0,"
0/"
12"
05"
18"
1>"
0T"
1Z"
1c"
1i"
0o"
1r"
1x"
1{"
1~"
b111010011111 >
b111010011111 z
b111010011111 M"
1}
b111010011111 <
b111010011111 x
b111010011110 =
b111010011110 w
b1110100111011001 N"
1y
b1001000000000000 %
b1001000000000000 C
b111010011111 (
b1001000000000000 &
b11101001111 ,
b11101001111 9
b11110100111011001 ;
b10010011000110 *
b10010011000110 3
b10010011000110 7
b1100100000000000 )
b1100100000000000 2
b1100100000000000 6
b1000 -
#180000
b1000 .
#182000
0U"
0^"
1d"
0g"
0m"
0p"
1T"
0]"
0c"
1o"
0r"
0S"
0\"
1b"
0e"
0k"
0n"
b100001001100 #
b100001001100 A
b100001001100 O"
0R"
0Q"
0""
0+"
11"
04"
0:"
0="
0P"
0!"
0*"
10"
03"
09"
0<"
0~
0)"
1/"
02"
08"
0;"
0W"
0Z"
1`"
0l"
1u"
0{"
0~"
b100001001100 >
b100001001100 z
b100001001100 M"
0}
b100001001101 <
b100001001101 x
b100001001100 =
b100001001100 w
b11010110100010 N"
0y
b101000000000000 %
b101000000000000 C
b100001001100 (
b101000000000000 &
b10000100110 ,
b10000100110 9
b10011010110100010 ;
b1101001010101010 *
b1101001010101010 3
b1101001010101010 7
b10100000000000 )
b10100000000000 2
b10100000000000 6
b1001 -
#190000
b1001 .
#192000
1U"
1^"
1a"
1j"
1m"
b111101111110 #
b111101111110 A
b111101111110 O"
1p"
0f"
1r"
1S"
1\"
1_"
1h"
1k"
1n"
1""
1+"
1."
17"
1:"
b111101111110 >
b111101111110 z
b111101111110 M"
1="
1!"
1*"
1-"
16"
19"
1<"
1~
1)"
1,"
15"
18"
1;"
1Q"
1T"
1W"
0]"
0`"
0c"
0x"
1~"
b111101111111 <
b111101111111 x
b111101111110 =
b111101111110 w
b1001110100000111 N"
b111101111110 (
b11110111111 ,
b11110111111 9
b11001110100000111 ;
b111001001110111 *
b111001001110111 3
b111001001110111 7
b1010 -
#200000
b1010 .
#202000
0U"
0X"
0["
0^"
0m"
0S"
0V"
0Y"
0\"
0k"
b110101100001 #
b110101100001 A
b110101100001 O"
1R"
0Q"
1T"
0W"
1]"
0""
0%"
0("
0+"
0:"
1P"
0!"
0$"
0'"
0*"
09"
0~
0#"
0&"
0)"
08"
0Z"
0`"
1c"
1f"
0l"
0o"
0r"
1x"
0~"
b110101100001 >
b110101100001 z
b110101100001 M"
1}
b110101100001 <
b110101100001 x
b110101100000 =
b110101100000 w
b11000111010010 N"
1y
b10000000000000 %
b10000000000000 C
b110101100001 (
b10000000000000 &
b11010110000 ,
b11010110000 9
b10011000111010010 ;
b1101101110001111 *
b1101101110001111 3
b1101101110001111 7
b1001000000000000 )
b1001000000000000 2
b1001000000000000 6
b1011 -
#210000
b1011 .
#212000
1U"
1X"
1["
1^"
0a"
0d"
1g"
0j"
1m"
b11010011111 #
b11010011111 A
b11010011111 O"
0s"
0T"
1r"
0u"
1S"
1V"
1Y"
1\"
0_"
0b"
1e"
0h"
1k"
0q"
1""
1%"
1("
1+"
0."
01"
14"
07"
1:"
b11010011111 >
b11010011111 z
b11010011111 M"
0@"
1!"
1$"
1'"
1*"
0-"
00"
13"
06"
19"
0?"
1~
1#"
1&"
1)"
0,"
0/"
12"
05"
18"
0>"
1Q"
1c"
1i"
1l"
1o"
1{"
b11010011111 <
b11010011111 x
b11010011110 =
b11010011110 w
b110111111010001 N"
b11010011111 (
b1101001111 ,
b1101001111 9
b10110111111010001 ;
b1001011011001110 *
b1001011011001110 3
b1001011011001110 7
b1100 -
#220000
b1100 .
#222000
0^"
1a"
1j"
0]"
1`"
0i"
0l"
0o"
0\"
1_"
1h"
b11110101110 #
b11110101110 A
b11110101110 O"
0R"
0+"
1."
17"
0P"
0*"
1-"
16"
0)"
1,"
15"
1Q"
0T"
1Z"
1r"
1u"
0{"
1~"
b11110101110 >
b11110101110 z
b11110101110 M"
0}
b11110101111 <
b11110101111 x
b11110101110 =
b11110101110 w
b1011100011101001 N"
0y
b1000000000000000 %
b1000000000000000 C
b11110101110 (
b1000000000000000 &
b1111010111 ,
b1111010111 9
b11011100011101001 ;
b100111011000101 *
b100111011000101 3
b100111011000101 7
b100000000000000 )
b100000000000000 2
b100000000000000 6
b1101 -
#230000
b1101 .
#232000
0U"
0["
1^"
0a"
0j"
0m"
0`"
1i"
0S"
0Y"
1\"
0_"
0h"
0k"
b10010010101 #
b10010010101 A
b10010010101 O"
1R"
0Q"
0T"
0""
0("
1+"
0."
07"
0:"
1P"
0!"
0'"
1*"
0-"
06"
09"
0~
0&"
1)"
0,"
05"
08"
1Z"
1]"
1l"
0o"
0x"
1{"
b10010010101 >
b10010010101 z
b10010010101 M"
1}
b10010010101 <
b10010010101 x
b10010010100 =
b10010010100 w
b1101101111011000 N"
1y
b1100000000000000 %
b1100000000000000 C
b10010010101 (
b1100000000000000 &
b1001001010 ,
b1001001010 9
b11101101111011000 ;
b10100010111101 *
b10100010111101 3
b10100010111101 7
b1110000000000000 )
b1110000000000000 2
b1110000000000000 6
b1110 -
#240000
b1110 .
#242000
1U"
0X"
0^"
1j"
1S"
0V"
0\"
1h"
b10110000010 #
b10110000010 A
b10110000010 O"
0R"
1Q"
0T"
1W"
1]"
1""
0%"
0+"
17"
0P"
1!"
0$"
0*"
16"
1~
0#"
0)"
15"
1Z"
0`"
0c"
0f"
1i"
1o"
b10110000010 >
b10110000010 z
b10110000010 M"
0}
b10110000011 <
b10110000011 x
b10110000010 =
b10110000010 w
b1101111100011101 N"
0y
b1101000000000000 %
b1101000000000000 C
b10110000010 (
b1101000000000000 &
b1011000001 ,
b1011000001 9
b11101111100011101 ;
b10011001100101 *
b10011001100101 3
b10011001100101 7
b110100000000000 )
b110100000000000 2
b110100000000000 6
b1111 -
#250000
b1111 .
#252000
1X"
1a"
0g"
0j"
b11000100110 #
b11000100110 A
b11000100110 O"
1m"
1V"
1_"
0e"
0h"
1k"
1%"
1."
04"
07"
b11000100110 >
b11000100110 z
b11000100110 M"
1:"
1$"
1-"
03"
06"
19"
1#"
1,"
02"
05"
18"
0Q"
1W"
0`"
0c"
1i"
1x"
0~"
b11000100111 <
b11000100111 x
b11000100110 =
b11000100110 w
b111111100011100 N"
b11000000000000 %
b11000000000000 C
b11000100110 (
b11000000000000 &
b1100010011 ,
b1100010011 9
b10111111100011100 ;
b1000011100001010 *
b1000011100001010 3
b1000011100001010 7
b1100000000000 )
b1100000000000 2
b1100000000000 6
b10000 -
#260000
b10000 .
#262000
0X"
1["
1^"
0a"
1d"
b10001011010 #
b10001011010 A
b10001011010 O"
0m"
1`"
0r"
0V"
1Y"
1\"
0_"
1b"
0k"
0%"
1("
1+"
0."
11"
b10001011010 >
b10001011010 z
b10001011010 M"
0:"
0$"
1'"
1*"
0-"
10"
09"
0#"
1&"
1)"
0,"
1/"
08"
1Q"
1W"
1]"
1f"
1l"
1o"
0{"
b10001011011 <
b10001011011 x
b10001011010 =
b10001011010 w
b11011110111101 N"
b1010000000000000 %
b1010000000000000 C
b10001011010 (
b1010000000000000 &
b1000101101 ,
b1000101101 9
b10011011110111101 ;
b1100110010011101 *
b1100110010011101 3
b1100110010011101 7
b101000000000000 )
b101000000000000 2
b101000000000000 6
b10010 -
#270000
b10001 .
#272000
0U"
0^"
1a"
1g"
1j"
1m"
0p"
0o"
0S"
0\"
1_"
1e"
1h"
1k"
0n"
b1111101001 #
b1111101001 A
b1111101001 O"
1R"
0Q"
1W"
0""
0+"
1."
14"
17"
1:"
0="
1P"
0!"
0*"
1-"
13"
16"
19"
0<"
0~
0)"
1,"
12"
15"
18"
0;"
1T"
0Z"
1]"
0`"
1c"
1f"
1i"
1l"
1r"
0u"
0x"
1{"
b1111101001 >
b1111101001 z
b1111101001 M"
1}
b1111101001 <
b1111101001 x
b1111101000 =
b1111101000 w
b100101111010110 N"
1y
b110000000000000 %
b110000000000000 C
b1111101001 (
b110000000000000 &
b111110100 ,
b111110100 9
b10100101111010110 ;
b1011100000010011 *
b1011100000010011 3
b1011100000010011 7
b1011000000000000 )
b1011000000000000 2
b1011000000000000 6
b10011 -
#280000
b10010 .
#282000
0["
0a"
0d"
1Z"
0]"
1`"
0f"
0Y"
0_"
0b"
b1110000000 #
b1110000000 A
b1110000000 O"
0R"
1Q"
0T"
0("
0."
01"
0P"
0'"
0-"
00"
0&"
0,"
0/"
0c"
0l"
1o"
1x"
0{"
b1110000000 >
b1110000000 z
b1110000000 M"
0}
b1110000001 <
b1110000001 x
b1110000000 =
b1110000000 w
b10110100101101 N"
0y
b1101000000000000 %
b1101000000000000 C
b1110000000 (
b1101000000000000 &
b111000000 ,
b111000000 9
b10010110100101101 ;
b1101011001010011 *
b1101011001010011 3
b1101011001010011 7
b110100000000000 )
b110100000000000 2
b110100000000000 6
b10100 -
#290000
b10011 .
#292000
1U"
1X"
1^"
1d"
0m"
1p"
b110111010110 #
b110111010110 A
b110111010110 O"
1s"
0Z"
0`"
1l"
0r"
1S"
1V"
1\"
1b"
0k"
1n"
1q"
1""
1%"
1+"
11"
0:"
1="
b110111010110 >
b110111010110 z
b110111010110 M"
1@"
1!"
1$"
1*"
10"
09"
1<"
1?"
1~
1#"
1)"
1/"
08"
1;"
1>"
0T"
0W"
0f"
1i"
0o"
0u"
1x"
1{"
1~"
b110111010111 <
b110111010111 x
b110111010110 =
b110111010110 w
b1110001100000001 N"
b1011000000000000 %
b1011000000000000 C
b110111010110 (
b1011000000000000 &
b11011101011 ,
b11011101011 9
b11110001100000001 ;
b10101011010101 *
b10101011010101 3
b10101011010101 7
b101100000000000 )
b101100000000000 2
b101100000000000 6
b10101 -
#300000
b10100 .
#302000
0U"
0X"
0^"
1a"
0d"
0j"
b10010100000 #
b10010100000 A
b10010100000 O"
0s"
1T"
1]"
1c"
1f"
0l"
0S"
0V"
0\"
1_"
0b"
0h"
0q"
0""
0%"
0+"
1."
01"
07"
b10010100000 >
b10010100000 z
b10010100000 M"
0@"
0!"
0$"
0*"
1-"
00"
06"
0?"
0~
0#"
0)"
1,"
0/"
05"
0>"
0Q"
0Z"
1`"
1o"
0r"
0x"
b10010100001 <
b10010100001 x
b10010100000 =
b10010100000 w
b1100010111110010 N"
b10000000000000 %
b10000000000000 C
b10010100000 (
b10000000000000 &
b1001010000 ,
b1001010000 9
b11100010111110010 ;
b11111010101110 *
b11111010101110 3
b11111010101110 7
b1000000000000 )
b1000000000000 2
b1000000000000 6
b10110 -
#310000
b10101 .
#312000
1^"
0a"
1m"
1s"
0]"
1l"
1r"
1\"
0_"
1k"
1q"
b111010010001 #
b111010010001 A
b111010010001 O"
1R"
1+"
0."
1:"
1@"
1P"
1*"
0-"
19"
1?"
1)"
0,"
18"
1>"
0Q"
1T"
0`"
0o"
1u"
0{"
b111010010001 >
b111010010001 z
b111010010001 M"
1}
b111010010001 <
b111010010001 x
b111010010000 =
b111010010000 w
b1001101111000010 N"
1y
b1101000000000000 %
b1101000000000000 C
b111010010001 (
b1101000000000000 &
b11101001000 ,
b11101001000 9
b11001101111000010 ;
b111001011001111 *
b111001011001111 3
b111001011001111 7
b1110100000000000 )
b1110100000000000 2
b1110100000000000 6
b10111 -
#320000
b10110 .
