lab2a-div/divider.vcd
$date
	Tue Jan 31 22:09:49 2023
$end
$version
	Icarus Verilog
$end
$timescale
	1ps
$end
$scope module test_divider $end
$var wire 16 ! o_div_quotient [15:0] $end
$var wire 16 " o_div_remainder [15:0] $end
$var wire 16 # o_1iter_remainder [15:0] $end
$var wire 16 $ o_1iter_quotient [15:0] $end
$var wire 16 % o_1iter_dividend [15:0] $end
$var reg 16 & exp_dividend [15:0] $end
$var reg 16 ' exp_quotient [15:0] $end
$var reg 16 ( exp_remainder [15:0] $end
$var reg 16 ) i_dividend [15:0] $end
$var reg 16 * i_divisor [15:0] $end
$var reg 16 + i_quotient [15:0] $end
$var reg 16 , i_remainder [15:0] $end
$var integer 32 - __ignore [31:0] $end
$var integer 32 . allTests [31:0] $end
$var integer 32 / divTests [31:0] $end
$var integer 32 0 errors [31:0] $end
$var integer 32 1 input_file [31:0] $end
$var integer 32 2 randomSeed [31:0] $end
$scope module div $end
$var wire 16 3 i_dividend [15:0] $end
$var wire 16 4 i_divisor [15:0] $end
$var wire 16 5 o_quotient [15:0] $end
$var wire 16 6 o_remainder [15:0] $end
$upscope $end
$scope module divider_iter $end
$var wire 16 7 i_dividend [15:0] $end
$var wire 16 8 i_divisor [15:0] $end
$var wire 16 9 i_quotient [15:0] $end
$var wire 16 : i_remainder [15:0] $end
$var wire 1 ; rem_sub_non_negative $end
$var wire 16 < rem_sub [15:0] $end
$var wire 16 = rem_shifted_plus_1 [15:0] $end
$var wire 16 > rem_shifted [15:0] $end
$var wire 16 ? rem_mux_out_1 [15:0] $end
$var wire 16 @ quot_shifted_plus_1 [15:0] $end
$var wire 16 A quot_shifted [15:0] $end
$var wire 16 B o_remainder [15:0] $end
$var wire 16 C o_quotient [15:0] $end
$var wire 16 D o_dividend [15:0] $end
$scope module quot_mux $end
$var wire 16 E A [15:0] $end
$var wire 16 F B [15:0] $end
$var wire 1 ; S $end
$var wire 16 G Out [15:0] $end
$scope begin genblk1[0] $end
$scope module m $end
$var wire 1 H A $end
$var wire 1 I B $end
$var wire 1 ; S $end
$var wire 1 J Out $end
$upscope $end
$upscope $end
$scope begin genblk1[1] $end
$scope module m $end
$var wire 1 K A $end
$var wire 1 L B $end
$var wire 1 ; S $end
$var wire 1 M Out $end
$upscope $end
$upscope $end
$scope begin genblk1[2] $end
$scope module m $end
$var wire 1 N A $end
$var wire 1 O B $end
$var wire 1 ; S $end
$var wire 1 P Out $end
$upscope $end
$upscope $end
$scope begin genblk1[3] $end
$scope module m $end
$var wire 1 Q A $end
$var wire 1 R B $end
$var wire 1 ; S $end
$var wire 1 S Out $end
$upscope $end
$upscope $end
$scope begin genblk1[4] $end
$scope module m $end
$var wire 1 T A $end
$var wire 1 U B $end
$var wire 1 ; S $end
$var wire 1 V Out $end
$upscope $end
$upscope $end
$scope begin genblk1[5] $end
$scope module m $end
$var wire 1 W A $end
$var wire 1 X B $end
$var wire 1 ; S $end
$var wire 1 Y Out $end
$upscope $end
$upscope $end
$scope begin genblk1[6] $end
$scope module m $end
$var wire 1 Z A $end
$var wire 1 [ B $end
$var wire 1 ; S $end
$var wire 1 \ Out $end
$upscope $end
$upscope $end
$scope begin genblk1[7] $end
$scope module m $end
$var wire 1 ] A $end
$var wire 1 ^ B $end
$var wire 1 ; S $end
$var wire 1 _ Out $end
$upscope $end
$upscope $end
$scope begin genblk1[8] $end
$scope module m $end
$var wire 1 ` A $end
$var wire 1 a B $end
$var wire 1 ; S $end
$var wire 1 b Out $end
$upscope $end
$upscope $end
$scope begin genblk1[9] $end
$scope module m $end
$var wire 1 c A $end
$var wire 1 d B $end
$var wire 1 ; S $end
$var wire 1 e Out $end
$upscope $end
$upscope $end
$scope begin genblk1[10] $end
$scope module m $end
$var wire 1 f A $end
$var wire 1 g B $end
$var wire 1 ; S $end
$var wire 1 h Out $end
$upscope $end
$upscope $end
$scope begin genblk1[11] $end
$scope module m $end
$var wire 1 i A $end
$var wire 1 j B $end
$var wire 1 ; S $end
$var wire 1 k Out $end
$upscope $end
$upscope $end
$scope begin genblk1[12] $end
$scope module m $end
$var wire 1 l A $end
$var wire 1 m B $end
$var wire 1 ; S $end
$var wire 1 n Out $end
$upscope $end
$upscope $end
$scope begin genblk1[13] $end
$scope module m $end
$var wire 1 o A $end
$var wire 1 p B $end
$var wire 1 ; S $end
$var wire 1 q Out $end
$upscope $end
$upscope $end
$scope begin genblk1[14] $end
$scope module m $end
$var wire 1 r A $end
$var wire 1 s B $end
$var wire 1 ; S $end
$var wire 1 t Out $end
$upscope $end
$upscope $end
$scope begin genblk1[15] $end
$scope module m $end
$var wire 1 u A $end
$var wire 1 v B $end
$var wire 1 ; S $end
$var wire 1 w Out $end
$upscope $end
$upscope $end
$upscope $end
$scope module rem_mux_1 $end
$var wire 16 x A [15:0] $end
$var wire 16 y B [15:0] $end
$var wire 1 z S $end
$var wire 16 { Out [15:0] $end
$scope begin genblk1[0] $end
$scope module m $end
$var wire 1 | A $end
$var wire 1 } B $end
$var wire 1 z S $end
$var wire 1 ~ Out $end
$upscope $end
$upscope $end
$scope begin genblk1[1] $end
$scope module m $end
$var wire 1 !" A $end
$var wire 1 "" B $end
$var wire 1 z S $end
$var wire 1 #" Out $end
$upscope $end
$upscope $end
$scope begin genblk1[2] $end
$scope module m $end
$var wire 1 $" A $end
$var wire 1 %" B $end
$var wire 1 z S $end
$var wire 1 &" Out $end
$upscope $end
$upscope $end
$scope begin genblk1[3] $end
$scope module m $end
$var wire 1 '" A $end
$var wire 1 (" B $end
$var wire 1 z S $end
$var wire 1 )" Out $end
$upscope $end
$upscope $end
$scope begin genblk1[4] $end
$scope module m $end
$var wire 1 *" A $end
$var wire 1 +" B $end
$var wire 1 z S $end
$var wire 1 ," Out $end
$upscope $end
$upscope $end
$scope begin genblk1[5] $end
$scope module m $end
$var wire 1 -" A $end
$var wire 1 ." B $end
$var wire 1 z S $end
$var wire 1 /" Out $end
$upscope $end
$upscope $end
$scope begin genblk1[6] $end
$scope module m $end
$var wire 1 0" A $end
$var wire 1 1" B $end
$var wire 1 z S $end
$var wire 1 2" Out $end
$upscope $end
$upscope $end
$scope begin genblk1[7] $end
$scope module m $end
$var wire 1 3" A $end
$var wire 1 4" B $end
$var wire 1 z S $end
$var wire 1 5" Out $end
$upscope $end
$upscope $end
$scope begin genblk1[8] $end
$scope module m $end
$var wire 1 6" A $end
$var wire 1 7" B $end
$var wire 1 z S $end
$var wire 1 8" Out $end
$upscope $end
$upscope $end
$scope begin genblk1[9] $end
$scope module m $end
$var wire 1 9" A $end
$var wire 1 :" B $end
$var wire 1 z S $end
$var wire 1 ;" Out $end
$upscope $end
$upscope $end
$scope begin genblk1[10] $end
$scope module m $end
$var wire 1 <" A $end
$var wire 1 =" B $end
$var wire 1 z S $end
$var wire 1 >" Out $end
$upscope $end
$upscope $end
$scope begin genblk1[11] $end
$scope module m $end
$var wire 1 ?" A $end
$var wire 1 @" B $end
$var wire 1 z S $end
$var wire 1 A" Out $end
$upscope $end
$upscope $end
$scope begin genblk1[12] $end
$scope module m $end
$var wire 1 B" A $end
$var wire 1 C" B $end
$var wire 1 z S $end
$var wire 1 D" Out $end
$upscope $end
$upscope $end
$scope begin genblk1[13] $end
$scope module m $end
$var wire 1 E" A $end
$var wire 1 F" B $end
$var wire 1 z S $end
$var wire 1 G" Out $end
$upscope $end
$upscope $end
$scope begin genblk1[14] $end
$scope module m $end
$var wire 1 H" A $end
$var wire 1 I" B $end
$var wire 1 z S $end
$var wire 1 J" Out $end
$upscope $end
$upscope $end
$scope begin genblk1[15] $end
$scope module m $end
$var wire 1 K" A $end
$var wire 1 L" B $end
$var wire 1 z S $end
$var wire 1 M" Out $end
$upscope $end
$upscope $end
$upscope $end
$scope module rem_mux_2 $end
$var wire 16 N" A [15:0] $end
$var wire 16 O" B [15:0] $end
$var wire 1 ; S $end
$var wire 16 P" Out [15:0] $end
$scope begin genblk1[0] $end
$scope module m $end
$var wire 1 Q" A $end
$var wire 1 R" B $end
$var wire 1 ; S $end
$var wire 1 S" Out $end
$upscope $end
$upscope $end
$scope begin genblk1[1] $end
$scope module m $end
$var wire 1 T" A $end
$var wire 1 U" B $end
$var wire 1 ; S $end
$var wire 1 V" Out $end
$upscope $end
$upscope $end
$scope begin genblk1[2] $end
$scope module m $end
$var wire 1 W" A $end
$var wire 1 X" B $end
$var wire 1 ; S $end
$var wire 1 Y" Out $end
$upscope $end
$upscope $end
$scope begin genblk1[3] $end
$scope module m $end
$var wire 1 Z" A $end
$var wire 1 [" B $end
$var wire 1 ; S $end
$var wire 1 \" Out $end
$upscope $end
$upscope $end
$scope begin genblk1[4] $end
$scope module m $end
$var wire 1 ]" A $end
$var wire 1 ^" B $end
$var wire 1 ; S $end
$var wire 1 _" Out $end
$upscope $end
$upscope $end
$scope begin genblk1[5] $end
$scope module m $end
$var wire 1 `" A $end
$var wire 1 a" B $end
$var wire 1 ; S $end
$var wire 1 b" Out $end
$upscope $end
$upscope $end
$scope begin genblk1[6] $end
$scope module m $end
$var wire 1 c" A $end
$var wire 1 d" B $end
$var wire 1 ; S $end
$var wire 1 e" Out $end
$upscope $end
$upscope $end
$scope begin genblk1[7] $end
$scope module m $end
$var wire 1 f" A $end
$var wire 1 g" B $end
$var wire 1 ; S $end
$var wire 1 h" Out $end
$upscope $end
$upscope $end
$scope begin genblk1[8] $end
$scope module m $end
$var wire 1 i" A $end
$var wire 1 j" B $end
$var wire 1 ; S $end
$var wire 1 k" Out $end
$upscope $end
$upscope $end
$scope begin genblk1[9] $end
$scope module m $end
$var wire 1 l" A $end
$var wire 1 m" B $end
$var wire 1 ; S $end
$var wire 1 n" Out $end
$upscope $end
$upscope $end
$scope begin genblk1[10] $end
$scope module m $end
$var wire 1 o" A $end
$var wire 1 p" B $end
$var wire 1 ; S $end
$var wire 1 q" Out $end
$upscope $end
$upscope $end
$scope begin genblk1[11] $end
$scope module m $end
$var wire 1 r" A $end
$var wire 1 s" B $end
$var wire 1 ; S $end
$var wire 1 t" Out $end
$upscope $end
$upscope $end
$scope begin genblk1[12] $end
$scope module m $end
$var wire 1 u" A $end
$var wire 1 v" B $end
$var wire 1 ; S $end
$var wire 1 w" Out $end
$upscope $end
$upscope $end
$scope begin genblk1[13] $end
$scope module m $end
$var wire 1 x" A $end
$var wire 1 y" B $end
$var wire 1 ; S $end
$var wire 1 z" Out $end
$upscope $end
$upscope $end
$scope begin genblk1[14] $end
$scope module m $end
$var wire 1 {" A $end
$var wire 1 |" B $end
$var wire 1 ; S $end
$var wire 1 }" Out $end
$upscope $end
$upscope $end
$scope begin genblk1[15] $end
$scope module m $end
$var wire 1 ~" A $end
$var wire 1 !# B $end
$var wire 1 ; S $end
$var wire 1 "# Out $end
$upscope $end
$upscope $end
$upscope $end
$upscope $end
$scope task printPoints $end
$var reg 32 ## actual [31:0] $end
$var reg 32 $# possible [31:0] $end
$upscope $end
$upscope $end
$enddefinitions $end
#0
$dumpvars
bx $#
bx ##
0"#
0!#
0~"
0}"
0|"
0{"
0z"
0y"
0x"
0w"
0v"
0u"
0t"
0s"
0r"
0q"
0p"
0o"
0n"
0m"
0l"
0k"
0j"
0i"
0h"
0g"
0f"
0e"
0d"
0c"
0b"
0a"
0`"
0_"
0^"
0]"
0\"
0["
0Z"
0Y"
0X"
0W"
0V"
0U"
0T"
0S"
0R"
0Q"
b0 P"
b0 O"
b0 N"
0M"
0L"
0K"
0J"
0I"
0H"
0G"
0F"
0E"
0D"
0C"
0B"
0A"
0@"
0?"
0>"
0="
0<"
0;"
0:"
09"
08"
07"
06"
05"
04"
03"
02"
01"
00"
0/"
0."
0-"
0,"
0+"
0*"
0)"
0("
0'"
0&"
0%"
0$"
0#"
0""
0!"
0~
1}
0|
b0 {
0z
b1 y
b0 x
0w
0v
0u
0t
0s
0r
0q
0p
0o
0n
0m
0l
0k
0j
0i
0h
0g
0f
0e
0d
0c
0b
0a
0`
0_
0^
0]
0\
0[
0Z
0Y
0X
0W
0V
0U
0T
0S
0R
0Q
0P
0O
0N
0M
0L
0K
1J
1I
0H
b1 G
b1 F
b0 E
b0 D
b1 C
b0 B
b0 A
b1 @
b0 ?
b0 >
b1 =
b0 <
1;
b0 :
b0 9
b0 8
b0 7
bz 6
bz 5
b0 4
b0 3
b10000000001011000100010000000000 2
b10000000000000000000000000000011 1
b0 0
bx /
b0 .
bx -
b0 ,
b0 +
b0 *
b0 )
bx (
bx '
bx &
b0 %
b1 $
b0 #
bz "
bz !
$end
#102000
1h"
1q"
1T"
1]"
1c"
1g"
1i"
1p"
1l"
1#"
1,"
12"
18"
b1101010010 ?
b1101010010 {
b1101010010 N"
1;"
1""
1+"
11"
17"
1:"
1!"
1*"
10"
16"
19"
1S"
0V"
0Y"
0\"
1_"
0b"
1e"
0k"
1z"
b1010010011010001 #
b1010010011010001 B
b1010010011010001 P"
1"#
b1101010011 =
b1101010011 y
b1101010010 >
b1101010010 x
1R"
0U"
0X"
0["
1^"
0a"
1d"
0j"
1y"
1!#
b100000000000000 %
b100000000000000 D
b0 '
b1101010010 (
b100000000000000 &
b110101001 ,
b110101001 :
b1010010011010001 <
b1010010011010001 O"
b101111010000001 *
b101111010000001 4
b101111010000001 8
b10000000000000 )
b10000000000000 3
b10000000000000 7
b1 -
#110000
b1 0
b1 .
#112000
1n"
1w"
0T"
0]"
1`"
0l"
1m"
1o"
1r"
1v"
0#"
0,"
1/"
0;"
1>"
b110101100000 ?
b110101100000 {
b110101100000 N"
1A"
0""
0+"
1."
0:"
1="
1@"
0!"
0*"
1-"
09"
1<"
1?"
0V"
1Y"
1\"
1_"
1b"
b1011011011111101 #
b1011011011111101 B
b1011011011111101 P"
0t"
b110101100001 =
b110101100001 y
b110101100000 >
b110101100000 x
0U"
1X"
1["
1^"
1a"
0s"
b1001000000000000 %
b1001000000000000 D
b110101100000 (
b1001000000000000 &
b11010110000 ,
b11010110000 :
b1011011011111101 <
b1011011011111101 O"
b101011001100011 *
b101011001100011 4
b101011001100011 8
b100100000000000 )
b100100000000000 3
b100100000000000 7
b10 -
#120000
b10 0
b10 .
#122000
0_"
0e"
0h"
1t"
0w"
1]"
0^"
0c"
0d"
1f"
0g"
1l"
0r"
1s"
0v"
1,"
02"
15"
1;"
b11110110000 ?
b11110110000 {
b11110110000 N"
0A"
1+"
01"
14"
1:"
0@"
1*"
00"
13"
19"
0?"
1V"
0Y"
0\"
1b"
0k"
1q"
1}"
b110111000100011 #
b110111000100011 B
b110111000100011 P"
0"#
b11110110001 =
b11110110001 y
b11110110000 >
b11110110000 x
1U"
0X"
0["
1a"
0j"
1p"
1|"
0!#
b1101000000000000 %
b1101000000000000 D
b11110110000 (
b1101000000000000 &
b1111011000 ,
b1111011000 :
b110111000100011 <
b110111000100011 O"
b1001100110001101 *
b1001100110001101 4
b1001100110001101 8
b110100000000000 )
b110100000000000 3
b110100000000000 7
b11 -
#130000
b11 0
b11 .
#132000
0V"
1T"
0U"
1W"
0]"
0`"
1c"
0f"
0i"
0l"
0o"
1r"
1#"
1&"
0,"
0/"
12"
05"
08"
0;"
0>"
b100001000110 ?
b100001000110 {
b100001000110 N"
1A"
1""
1%"
0+"
0."
11"
04"
07"
0:"
0="
1@"
1!"
1$"
0*"
0-"
10"
03"
06"
09"
0<"
1?"
0S"
1Y"
0\"
1_"
1b"
0h"
0k"
1n"
0t"
1w"
0}"
b1011011000110100 #
b1011011000110100 B
b1011011000110100 P"
1"#
b100001000111 =
b100001000111 y
b100001000110 >
b100001000110 x
0R"
1X"
0["
1^"
1a"
0g"
0j"
1m"
0s"
1v"
0|"
1!#
b101000000000000 %
b101000000000000 D
b100001000110 (
b101000000000000 &
b10000100011 ,
b10000100011 :
b1011011000110100 <
b1011011000110100 O"
b101001000010010 *
b101001000010010 4
b101001000010010 8
b10100000000000 )
b10100000000000 3
b10100000000000 7
b100 -
#140000
b100 0
b100 .
#142000
1V"
0_"
0n"
0w"
0z"
1}"
0T"
1U"
0W"
1]"
0^"
1`"
0c"
1l"
0m"
0v"
0y"
1|"
1o"
0#"
0&"
1,"
1/"
02"
1;"
b111000110000 ?
b111000110000 {
b111000110000 N"
1>"
0""
0%"
1+"
1."
01"
1:"
1="
0!"
0$"
1*"
1-"
00"
19"
1<"
1S"
0Y"
0\"
1k"
0q"
0t"
b100000100100011 #
b100000100100011 B
b100000100100011 P"
0"#
b111000110001 =
b111000110001 y
b111000110000 >
b111000110000 x
1R"
0X"
0["
1j"
0p"
0s"
0!#
b1000000000000 %
b1000000000000 D
b111000110000 (
b1000000000000 &
b11100011000 ,
b11100011000 :
b100000100100011 <
b100000100100011 O"
b1100110100001101 *
b1100110100001101 4
b1100110100001101 8
b100000000000 )
b100000000000 3
b100000000000 7
b101 -
#150000
b101 0
b101 .
#152000
1\"
0b"
1T"
1W"
1["
0`"
0a"
1i"
0S"
1V"
0Y"
1#"
1&"
0/"
18"
1Q"
0R"
1U"
0X"
1""
1%"
0."
17"
1!"
1$"
0-"
16"
1_"
1e"
1h"
b100000111011010 #
b100000111011010 B
b100000111011010 P"
1k"
b111100010111 ?
b111100010111 {
b111100010111 N"
1~
b111100010111 =
b111100010111 y
b111100010110 >
b111100010110 x
1^"
1d"
1g"
1j"
1z
b110000000000000 %
b110000000000000 D
b111100010111 (
b110000000000000 &
b11110001011 ,
b11110001011 :
b100000111011010 <
b100000111011010 O"
b1100110100111101 *
b1100110100111101 4
b1100110100111101 8
b1011000000000000 )
b1011000000000000 3
b1011000000000000 7
b110 -
#160000
b110 0
b110 .
#162000
0\"
1b"
1t"
1Z"
0["
1`"
1a"
1c"
0l"
0r"
1s"
1)"
1/"
12"
0;"
0A"
0Q"
1("
1."
11"
0:"
0@"
1'"
1-"
10"
09"
0?"
0S"
1_"
1e"
0n"
1q"
0w"
b110111110010 #
b110111110010 B
b110111110010 P"
0}"
b10101111110 ?
b10101111110 {
b10101111110 N"
0~
b10101111111 =
b10101111111 y
b10101111110 >
b10101111110 x
0R"
1^"
1d"
0m"
1p"
0v"
0|"
0z
b1101000000000000 %
b1101000000000000 D
b10101111110 (
b1101000000000000 &
b1010111111 ,
b1010111111 :
b110111110010 <
b110111110010 O"
b1111011110001100 *
b1111011110001100 4
b1111011110001100 8
b110100000000000 )
b110100000000000 3
b110100000000000 7
b111 -
#170000
b111 0
b111 .
#172000
0b"
0`"
0a"
0c"
1f"
0i"
1l"
1r"
1S"
0/"
02"
15"
08"
1;"
1A"
1Q"
1R"
0."
01"
14"
07"
1:"
1@"
0-"
00"
13"
06"
19"
1?"
0V"
1\"
1e"
1k"
0q"
1t"
1z"
1}"
b1110100111011001 #
b1110100111011001 B
b1110100111011001 P"
1"#
b111010011111 ?
b111010011111 {
b111010011111 N"
1~
b111010011111 =
b111010011111 y
b111010011110 >
b111010011110 x
0U"
1["
1d"
1j"
0p"
1s"
1y"
1|"
1!#
1z
b1001000000000000 %
b1001000000000000 D
b111010011111 (
b1001000000000000 &
b11101001111 ,
b11101001111 :
b1110100111011001 <
b1110100111011001 O"
b10010011000110 *
b10010011000110 4
b10010011000110 8
b1100100000000000 )
b1100100000000000 3
b1100100000000000 7
b1000 -
#180000
b1000 0
b1000 .
#182000
1V"
0_"
0e"
1q"
0t"
0T"
1U"
0]"
0^"
1c"
0d"
0f"
0l"
0o"
1p"
0s"
0S"
0#"
0,"
12"
05"
0;"
0>"
0Q"
0R"
0""
0+"
11"
04"
0:"
0="
0!"
0*"
10"
03"
09"
0<"
0Y"
0\"
1b"
0n"
1w"
0}"
b11010110100010 #
b11010110100010 B
b11010110100010 P"
0"#
b100001001100 ?
b100001001100 {
b100001001100 N"
0~
b100001001101 =
b100001001101 y
b100001001100 >
b100001001100 x
0X"
0["
1a"
0m"
1v"
0|"
0!#
0z
b101000000000000 %
b101000000000000 D
b100001001100 (
b101000000000000 &
b10000100110 ,
b10000100110 :
b11010110100010 <
b11010110100010 O"
b1101001010101010 *
b1101001010101010 4
b1101001010101010 8
b10100000000000 )
b10100000000000 3
b10100000000000 7
b1001 -
#190000
b1001 0
b1001 .
#192000
0h"
1t"
1T"
1]"
0g"
1`"
1i"
1l"
1o"
1s"
1#"
1,"
1/"
18"
1;"
b111101111110 ?
b111101111110 {
b111101111110 N"
1>"
1""
1+"
1."
17"
1:"
1="
1!"
1*"
1-"
16"
19"
1<"
1S"
1V"
1Y"
0_"
0b"
0e"
0z"
b1001110100000111 #
b1001110100000111 B
b1001110100000111 P"
1"#
b111101111111 =
b111101111111 y
b111101111110 >
b111101111110 x
1R"
1U"
1X"
0^"
0a"
0d"
0y"
1!#
b111101111110 (
b11110111111 ,
b11110111111 :
b1001110100000111 <
b1001110100000111 O"
b111001001110111 *
b111001001110111 4
b111001001110111 8
b1010 -
#200000
b1010 0
b1010 .
#202000
0T"
0W"
0Z"
0]"
0l"
0S"
1V"
0Y"
1_"
0#"
0&"
0)"
0,"
0;"
1Q"
0R"
1U"
0X"
1^"
0""
0%"
0("
0+"
0:"
0!"
0$"
0'"
0*"
09"
0\"
0b"
1e"
1h"
0n"
0q"
0t"
1z"
b11000111010010 #
b11000111010010 B
b11000111010010 P"
0"#
b110101100001 ?
b110101100001 {
b110101100001 N"
1~
b110101100001 =
b110101100001 y
b110101100000 >
b110101100000 x
0["
0a"
1d"
1g"
0m"
0p"
0s"
1y"
0!#
1z
b10000000000000 %
b10000000000000 D
b110101100001 (
b10000000000000 &
b11010110000 ,
b11010110000 :
b11000111010010 <
b11000111010010 O"
b1101101110001111 *
b1101101110001111 4
b1101101110001111 8
b1001000000000000 )
b1001000000000000 3
b1001000000000000 7
b1011 -
#210000
b1011 0
b1011 .
#212000
0V"
1t"
0w"
1T"
0U"
1W"
1Z"
1]"
0`"
0c"
1f"
0i"
1l"
0r"
1s"
0v"
1#"
1&"
1)"
1,"
0/"
02"
15"
08"
1;"
b11010011111 ?
b11010011111 {
b11010011111 N"
0A"
1""
1%"
1("
1+"
0."
01"
14"
07"
1:"
0@"
1!"
1$"
1'"
1*"
0-"
00"
13"
06"
19"
0?"
1S"
1e"
1k"
1n"
1q"
b110111111010001 #
b110111111010001 B
b110111111010001 P"
1}"
b11010011111 =
b11010011111 y
b11010011110 >
b11010011110 x
1R"
1d"
1j"
1m"
1p"
1|"
b11010011111 (
b1101001111 ,
b1101001111 :
b110111111010001 <
b110111111010001 O"
b1001011011001110 *
b1001011011001110 4
b1001011011001110 8
b1100 -
#220000
b1100 0
b1100 .
#222000
0_"
1b"
0k"
0n"
0q"
0]"
0^"
1`"
1a"
1i"
0j"
0m"
0p"
0,"
1/"
18"
0Q"
0+"
1."
17"
0*"
1-"
16"
1S"
0V"
1\"
1t"
1w"
0}"
b1011100011101001 #
b1011100011101001 B
b1011100011101001 P"
1"#
b11110101110 ?
b11110101110 {
b11110101110 N"
0~
b11110101111 =
b11110101111 y
b11110101110 >
b11110101110 x
1R"
0U"
1["
1s"
1v"
0|"
1!#
0z
b1000000000000000 %
b1000000000000000 D
b11110101110 (
b1000000000000000 &
b1111010111 ,
b1111010111 :
b1011100011101001 <
b1011100011101001 O"
b100111011000101 *
b100111011000101 4
b100111011000101 8
b100000000000000 )
b100000000000000 3
b100000000000000 7
b1101 -
#230000
b1101 0
b1101 .
#232000
0b"
1k"
0T"
0Z"
1]"
0`"
0a"
0i"
1j"
0l"
0S"
0V"
0#"
0)"
1,"
0/"
08"
0;"
1Q"
0R"
0U"
0""
0("
1+"
0."
07"
0:"
0!"
0'"
1*"
0-"
06"
09"
1\"
1_"
1n"
0q"
0z"
b1101101111011000 #
b1101101111011000 B
b1101101111011000 P"
1}"
b10010010101 ?
b10010010101 {
b10010010101 N"
1~
b10010010101 =
b10010010101 y
b10010010100 >
b10010010100 x
1["
1^"
1m"
0p"
0y"
1|"
1z
b1100000000000000 %
b1100000000000000 D
b10010010101 (
b1100000000000000 &
b1001001010 ,
b1001001010 :
b1101101111011000 <
b1101101111011000 O"
b10100010111101 *
b10100010111101 4
b10100010111101 8
b1110000000000000 )
b1110000000000000 3
b1110000000000000 7
b1110 -
#240000
b1110 0
b1110 .
#242000
1T"
0W"
0]"
1i"
1S"
0V"
1Y"
1_"
1#"
0&"
0,"
18"
0Q"
1R"
0U"
1X"
1^"
1""
0%"
0+"
17"
1!"
0$"
0*"
16"
1\"
0b"
0e"
0h"
1k"
b1101111100011101 #
b1101111100011101 B
b1101111100011101 P"
1q"
b10110000010 ?
b10110000010 {
b10110000010 N"
0~
b10110000011 =
b10110000011 y
b10110000010 >
b10110000010 x
1["
0a"
0d"
0g"
1j"
1p"
0z
b1101000000000000 %
b1101000000000000 D
b10110000010 (
b1101000000000000 &
b1011000001 ,
b1011000001 :
b1101111100011101 <
b1101111100011101 O"
b10011001100101 *
b10011001100101 4
b10011001100101 8
b110100000000000 )
b110100000000000 3
b110100000000000 7
b1111 -
#250000
b1111 0
b1111 .
#252000
1W"
1`"
0f"
0i"
1l"
1&"
1/"
05"
08"
b11000100110 ?
b11000100110 {
b11000100110 N"
1;"
1%"
1."
04"
07"
1:"
1$"
1-"
03"
06"
19"
0S"
1Y"
0b"
0e"
1k"
1z"
b111111100011100 #
b111111100011100 B
b111111100011100 P"
0"#
b11000100111 =
b11000100111 y
b11000100110 >
b11000100110 x
0R"
1X"
0a"
0d"
1j"
1y"
0!#
b11000000000000 %
b11000000000000 D
b11000100110 (
b11000000000000 &
b1100010011 ,
b1100010011 :
b111111100011100 <
b111111100011100 O"
b1000011100001010 *
b1000011100001010 4
b1000011100001010 8
b1100000000000 )
b1100000000000 3
b1100000000000 7
b10000 -
#260000
b10000 0
b10000 .
#262000
1b"
0t"
0W"
1Z"
1]"
0`"
1a"
1c"
0l"
0s"
0&"
1)"
1,"
0/"
12"
b10001011010 ?
b10001011010 {
b10001011010 N"
0;"
0%"
1("
1+"
0."
11"
0:"
0$"
1'"
1*"
0-"
10"
09"
1S"
1Y"
1_"
1h"
1n"
1q"
b11011110111101 #
b11011110111101 B
b11011110111101 P"
0}"
b10001011011 =
b10001011011 y
b10001011010 >
b10001011010 x
1R"
1X"
1^"
1g"
1m"
1p"
0|"
b1010000000000000 %
b1010000000000000 D
b10001011010 (
b1010000000000000 &
b1000101101 ,
b1000101101 :
b11011110111101 <
b11011110111101 O"
b1100110010011101 *
b1100110010011101 4
b1100110010011101 8
b101000000000000 )
b101000000000000 3
b101000000000000 7
b10010 -
#270000
b10001 0
b10001 .
#272000
0q"
0T"
0]"
1`"
1f"
1i"
1l"
0o"
0p"
0S"
1Y"
0#"
0,"
1/"
15"
18"
1;"
0>"
1Q"
0R"
1X"
0""
0+"
1."
14"
17"
1:"
0="
0!"
0*"
1-"
13"
16"
19"
0<"
1V"
0\"
1_"
0b"
1e"
1h"
1k"
1n"
1t"
0w"
0z"
b100101111010110 #
b100101111010110 B
b100101111010110 P"
1}"
b1111101001 ?
b1111101001 {
b1111101001 N"
1~
b1111101001 =
b1111101001 y
b1111101000 >
b1111101000 x
1U"
0["
1^"
0a"
1d"
1g"
1j"
1m"
1s"
0v"
0y"
1|"
1z
b110000000000000 %
b110000000000000 D
b1111101001 (
b110000000000000 &
b111110100 ,
b111110100 :
b100101111010110 <
b100101111010110 O"
b1011100000010011 *
b1011100000010011 4
b1011100000010011 8
b1011000000000000 )
b1011000000000000 3
b1011000000000000 7
b10011 -
#280000
b10010 0
b10010 .
#282000
1\"
0_"
1b"
0h"
0Z"
1["
0^"
0`"
1a"
0c"
0g"
1S"
0V"
0)"
0/"
02"
0Q"
1R"
0U"
0("
0."
01"
0'"
0-"
00"
0e"
0n"
1q"
1z"
b10110100101101 #
b10110100101101 B
b10110100101101 P"
0}"
b1110000000 ?
b1110000000 {
b1110000000 N"
0~
b1110000001 =
b1110000001 y
b1110000000 >
b1110000000 x
0d"
0m"
1p"
1y"
0|"
0z
b1101000000000000 %
b1101000000000000 D
b1110000000 (
b1101000000000000 &
b111000000 ,
b111000000 :
b10110100101101 <
b10110100101101 O"
b1101011001010011 *
b1101011001010011 4
b1101011001010011 8
b110100000000000 )
b110100000000000 3
b110100000000000 7
b10100 -
#290000
b10011 0
b10011 .
#292000
0\"
0b"
1n"
0t"
1T"
0["
0a"
1W"
1]"
1c"
0l"
1m"
1o"
1r"
0s"
1#"
1&"
1,"
12"
0;"
1>"
b110111010110 ?
b110111010110 {
b110111010110 N"
1A"
1""
1%"
1+"
11"
0:"
1="
1@"
1!"
1$"
1*"
10"
09"
1<"
1?"
0V"
0Y"
0h"
1k"
0q"
0w"
1z"
1}"
b1110001100000001 #
b1110001100000001 B
b1110001100000001 P"
1"#
b110111010111 =
b110111010111 y
b110111010110 >
b110111010110 x
0U"
0X"
0g"
1j"
0p"
0v"
1y"
1|"
1!#
b1011000000000000 %
b1011000000000000 D
b110111010110 (
b1011000000000000 &
b11011101011 ,
b11011101011 :
b1110001100000001 <
b1110001100000001 O"
b10101011010101 *
b10101011010101 4
b10101011010101 8
b101100000000000 )
b101100000000000 3
b101100000000000 7
b10101 -
#300000
b10100 0
b10100 .
